{"data":[{"_id":"66f7b285ed8caf93278d6aac","name":"Prismatic Iridescence","description":"","deviceType":"Gloves","patternSets":[{"_id":"66f7b285ed8caf93278d6aa1","name":"Shiny Glaring Burst","description":"No description provided.","data":{"args":[1,10,0,0,0],"colorset":["0x009fff","0x003353","0x000107","0x0c0028","0x000107","0x003353","0x009fff"],"flags":0,"numColors":7,"pattern_id":4},"dataHash":"9ccaa6053fab3b2942ca22ba803ff0476548abdb3f09397b8dd6b4be3f521a2d","votes":0,"upvotedBy":[],"createdBy":"66f78e83ed8caf93278d6a34","uploadDate":"2024-09-28T07:38:45.185Z","__v":0}],"ledPatternOrder":[0,0,0,0,0,0,0,0,0,0],"flags":14,"dataHash":"69fb1cc7dc2a24d411724eede0a47824ffb29f9cda4f3667d56178f973507e12","votes":0,"upvotedBy":[],"createdBy":"66f78e83ed8caf93278d6a34","uploadDate":"2024-09-28T07:38:45.200Z","__v":0},{"_id":"6713833a9a7af7095a82cf69","name":"Duo Default Mode 1","description":"The first default of the duo","deviceType":"Duo","patternSets":[{"_id":"65f29753700334ffe6c689ff","name":"Duo Default Mode 1","description":"The first default mode on the duo","data":{"args":[6,6,25,0,0],"colorset":["0xff0000","0x00ff00","0x0000ff"],"flags":0,"numColors":3,"pattern_id":6},"dataHash":"27b13546a543a92b7f61fead91a9f1f1ddf9348ec74e8e4cafdf4ee7de7fa487","votes":1,"upvotedBy":["65f2971c700334ffe6c689ed"],"createdBy":"65f2971c700334ffe6c689ed","uploadDate":"2024-03-14T06:21:07.308Z","__v":1}],"ledPatternOrder":[0,0],"flags":6,"dataHash":"9fcbbfe1a3156894f51bd86a3cc007205dd900d4774f18f3c77df5f379af168b","votes":0,"upvotedBy":[],"createdBy":"65f2971c700334ffe6c689ed","uploadDate":"2024-10-19T10:00:26.127Z","__v":0},{"_id":"6713834e9a7af7095a82cf87","name":"Duo Default Mode 2","description":"The second default of the duo","deviceType":"Duo","patternSets":[{"_id":"6713834e9a7af7095a82cf82","name":"Pulsating Vaporous Gleam","description":"No description provided.","data":{"args":[2,13,0,0,0,5,1],"colorset":["0xff0000","0x00ff00","0x0000ff"],"flags":0,"numColors":3,"pattern_id":28},"dataHash":"9c91431df9b344aaef78f063268b71bc62160865729f41646d08c50891e1c775","votes":0,"upvotedBy":[],"createdBy":"65f2971c700334ffe6c689ed","uploadDate":"2024-10-19T10:00:46.365Z","__v":0},{"_id":"6713834e9a7af7095a82cf85","name":"Hypnotic Ray","description":"No description provided.","data":{"args":[2,13,0,0,0,5,0],"colorset":["0xff0000","0x00ff00","0x0000ff"],"flags":0,"numColors":3,"pattern_id":25},"dataHash":"f0d3dc1fb0792a9d60f40b8b70e798fe4fc82fe584544771a52381c74942ec0f","votes":0,"upvotedBy":[],"createdBy":"65f2971c700334ffe6c689ed","uploadDate":"2024-10-19T10:00:46.371Z","__v":0}],"ledPatternOrder":[0,1],"flags":2,"dataHash":"6a82cee0a24ff20ac8ad48d6c456961b1bd1f5aba18aaae948bc42317e319eb3","votes":0,"upvotedBy":[],"createdBy":"65f2971c700334ffe6c689ed","uploadDate":"2024-10-19T10:00:46.379Z","__v":0},{"_id":"671383609a7af7095a82cfa5","name":"Duo Default Mode 3","description":"The third default mode of the duo","deviceType":"Duo","patternSets":[{"_id":"671383609a7af7095a82cfa0","name":"Phosphoric Glare","description":"No description provided.","data":{"args":[6,6,0,0,0],"colorset":["0x97709f"],"flags":0,"numColors":1,"pattern_id":0},"dataHash":"484d9114ae4b719906090d6d320d6283130b323a02074ef84aa5170743be872a","votes":0,"upvotedBy":[],"createdBy":"65f2971c700334ffe6c689ed","uploadDate":"2024-10-19T10:01:04.105Z","__v":0},{"_id":"671383609a7af7095a82cfa3","name":"Glowing Star","description":"No description provided.","data":{"args":[16,20,218,0,0],"colorset":["0x4d00b2"],"flags":0,"numColors":1,"pattern_id":7},"dataHash":"3b47aece6479475d8152ae26d4c4a0a1a7bfe4ebbf5b263cf81b944e8068caf5","votes":0,"upvotedBy":[],"createdBy":"65f2971c700334ffe6c689ed","uploadDate":"2024-10-19T10:01:04.107Z","__v":0}],"ledPatternOrder":[0,1],"flags":2,"dataHash":"fbb376a8007f6f08685b3ac54114c7dd1a0d7eb295b681830e8349e606033357","votes":0,"upvotedBy":[],"createdBy":"65f2971c700334ffe6c689ed","uploadDate":"2024-10-19T10:01:04.109Z","__v":0},{"_id":"671383769a7af7095a82cfc4","name":"Duo Default Mode 4","description":"The fourth default mode of the duo","deviceType":"Duo","patternSets":[{"_id":"671383769a7af7095a82cfbf","name":"Twinkling Effulgent Flash","description":"No description provided.","data":{"args":[6,6,0,0,0],"colorset":["0xc4003b","0x700000","0x000000","0x0017e9","0x22004e","0x000000"],"flags":0,"numColors":6,"pattern_id":0},"dataHash":"bd762a05656f12530822dd7037e1585ea95349341e95fca9c216a40c091f807a","votes":0,"upvotedBy":[],"createdBy":"65f2971c700334ffe6c689ed","uploadDate":"2024-10-19T10:01:26.191Z","__v":0},{"_id":"671383769a7af7095a82cfc2","name":"Bright Corona","description":"No description provided.","data":{"args":[2,28,0,0,0],"colorset":["0xc4003b","0x4d00b2","0x0017e9"],"flags":0,"numColors":3,"pattern_id":3},"dataHash":"1a7fec0f3264791705cc193de40ea0101af5b587c3c091e29d2ea04753dd6dad","votes":0,"upvotedBy":[],"createdBy":"65f2971c700334ffe6c689ed","uploadDate":"2024-10-19T10:01:26.195Z","__v":0}],"ledPatternOrder":[0,1],"flags":2,"dataHash":"04e71740f7544207b26e73920a21ba417cf4b675384407da49714a746050f67c","votes":0,"upvotedBy":[],"createdBy":"65f2971c700334ffe6c689ed","uploadDate":"2024-10-19T10:01:26.197Z","__v":0},{"_id":"6713838c9a7af7095a82cfe2","name":"Duo Default Mode 5","description":"The fifth default mode of the duo","deviceType":"Duo","patternSets":[{"_id":"6713838c9a7af7095a82cfdf","name":"Mesmerizing Resplendent Flashlight","description":"No description provided.","data":{"args":[1,3,10,0,2],"colorset":["0xffc600","0x235500","0x00ff66","0x004355","0x0600ff","0x480055","0xff0057","0x552c00"],"flags":0,"numColors":8,"pattern_id":14},"dataHash":"bb97f9e0522ad09a4295125e5d1c5e7bf1b824162eb9ba8a690d1e1ded8d0a82","votes":0,"upvotedBy":[],"createdBy":"65f2971c700334ffe6c689ed","uploadDate":"2024-10-19T10:01:48.650Z","__v":0}],"ledPatternOrder":[0,0],"flags":6,"dataHash":"ca95c3420d66343f3e0f8b7e9bee76723884760b9e0ac30465edb87c43c8cbb7","votes":0,"upvotedBy":[],"createdBy":"65f2971c700334ffe6c689ed","uploadDate":"2024-10-19T10:01:48.655Z","__v":0},{"_id":"6732851e9a7af7095a830660","name":"Nocturnal Shine","description":"","deviceType":"Duo","patternSets":[{"_id":"6732851e9a7af7095a83065d","name":"Illuminating Sunburst","description":"No description provided.","data":{"args":[1,3,3,30,2],"colorset":["0x061f0d","0x2a3e3c","0x1b5d2e","0x4e477c","0x749b78","0xba0593","0xc873d9","0xf3f89a"],"flags":0,"numColors":8,"pattern_id":21},"dataHash":"cfebddba8505b115512295c92a9195f197104808d710790de9c4589ca3a220cd","votes":0,"upvotedBy":[],"createdBy":"671b7a249a7af7095a82e5df","uploadDate":"2024-11-11T22:28:46.787Z","__v":0}],"ledPatternOrder":[0,0],"flags":6,"dataHash":"2831d573e1acbf76e2f7a6123ac8628ee39b637e4acbcd13ab5e92fa4464ceb7","votes":0,"upvotedBy":[],"createdBy":"671b7a249a7af7095a82e5df","uploadDate":"2024-11-11T22:28:46.799Z","__v":0},{"_id":"6768aba6e6f12f8c3d86ecc6","name":"Luminous Glimmering Luminescence","description":"","deviceType":"Chromadeck","patternSets":[{"_id":"6768aba6e6f12f8c3d86ecb1","name":"Nebulous Flashlight","description":"No description provided.","data":{"args":[6,0,0,0,0],"colorset":["0x215449","0x154f54","0xff5841","0x8c03ff","0xdfffa4","0x89aa70"],"flags":0,"numColors":6,"pattern_id":23},"dataHash":"21b366160552f149f6fc9e2d86c95d7f015c0f80f72217604a166cf8b5964cf2","votes":0,"upvotedBy":[],"createdBy":"65f2971c700334ffe6c689ed","uploadDate":"2024-12-23T00:15:34.893Z","__v":0}],"ledPatternOrder":[0,0,0,0,0,0,0,0,0,0,0,0,0,0,0,0,0,0,0,0],"flags":6,"dataHash":"ee9f2ecdcebaf19cdbcd66b2cc182148900ce547b495946e0be34222ae90c2ca","votes":0,"upvotedBy":[],"createdBy":"65f2971c700334ffe6c689ed","uploadDate":"2024-12-23T00:15:34.925Z","__v":0},{"_id":"677745b81e7f2b31b37abf57","name":"LimeBurst","description":"Lime and low purple tips, spectral rainbow tops","deviceType":"Chromadeck","patternSets":[{"_id":"677745b81e7f2b31b37abf40","name":"Glimmering Lucent Constellation","description":"No description provided.","data":{"args":[6,6,25,0,0],"colorset":["0x1e031c","0xb2ff02"],"flags":0,"numColors":2,"pattern_id":6},"dataHash":"45fe23abeee341c4a19ef019becd23b045c755c6fa354c25a03b9f3ba9f12abf","votes":0,"upvotedBy":[],"createdBy":"677745531e7f2b31b37abf23","uploadDate":"2025-01-03T02:04:40.556Z","__v":0},{"_id":"677745b81e7f2b31b37abf43","name":"Spectral Radiant Radiation","description":"No description provided.","data":{"args":[16,20,0,0,0],"colorset":["0xcc00ff","0x250011","0x2f0f00","0x3e4300","0x051e00","0x000a05","0x000b10","0x020031"],"flags":0,"numColors":8,"pattern_id":1},"dataHash":"c5fd0285f89ce5864c96ebd99dfccc7f0cc1b5626ec21d041e4c20cd650d1a83","votes":0,"upvotedBy":[],"createdBy":"677745531e7f2b31b37abf23","uploadDate":"2025-01-03T02:04:40.562Z","__v":0}],"ledPatternOrder":[0,1,0,1,0,1,0,1,0,1,0,1,0,1,0,1,0,1,0,1],"flags":2,"dataHash":"1374e0a1c1ad2cbab8a2f904f2ecd15a9da10b3c0199afe1f85718684f33c3c4","votes":0,"upvotedBy":[],"createdBy":"677745531e7f2b31b37abf23","uploadDate":"2025-01-03T02:04:40.584Z","__v":0}],"page":2,"pageSize":10,"pages":2,"totalCount":19}
