{"data":[{"_id":"66a718bf2e72c822faa9b44b","name":"Sparkly Gleaming Gleam","description":"","deviceType":"Orbit","patternSets":[{"_id":"66a718bf2e72c822faa9b42c","name":"Mystic Fluorescent Comet","description":"No description provided.","data":{"args":[6,6,0,0,0],"colorset":["0x380057","0xff0000"],"flags":0,"numColors":2,"pattern_id":0},"dataHash":"b1148edf99d3f2a3e39bdc4ee999522be14df2fef47a9365da27019a8720b696","votes":0,"upvotedBy":[],"createdBy":"65f2971c700334ffe6c689ed","uploadDate":"2024-07-29T04:21:19.370Z","__v":0},{"_id":"66a718bf2e72c822faa9b42f","name":"Coruscating Luminosity","description":"No description provided.","data":{"args":[1,10,0,0,0],"colorset":["0xffffff"],"flags":0,"numColors":1,"pattern_id":4},"dataHash":"c3e6e7c1406b2c4390ec8423f74fd06ffb8f956f2dbc537b53fa305ac25e8b07","votes":0,"upvotedBy":[],"createdBy":"65f2971c700334ffe6c689ed","uploadDate":"2024-07-29T04:21:19.381Z","__v":0}],"ledPatternOrder":[0,1,1,0,1,1,0,0,1,1,0,1,1,0,0,1,1,0,1,1,0,0,1,1,0,1,1,0],"flags":10,"dataHash":"0b9d052b112542c15a955649e70e0215965bfe07554f0ae635a5509c40ffaf99","votes":0,"upvotedBy":[],"createdBy":"65f2971c700334ffe6c689ed","uploadDate":"2024-07-29T04:21:19.407Z","__v":0},{"_id":"66a71abb2e72c822faa9b54d","name":"Bright Celestial Aurora","description":"","deviceType":"Orbit","patternSets":[{"_id":"66a71abb2e72c822faa9b52e","name":"Flickering Meteoric Hypnosis","description":"No description provided.","data":{"args":[6,6,0,0,0],"colorset":["0x0051ff","0xcc0041","0x992000","0x664800","0x003324"],"flags":0,"numColors":5,"pattern_id":0},"dataHash":"da7e905ce9f65391a2154b270fb5330b52f3ace62ba73e37d5a98b7af82905d3","votes":0,"upvotedBy":[],"createdBy":"65f2971c700334ffe6c689ed","uploadDate":"2024-07-29T04:29:47.748Z","__v":0},{"_id":"66a71abb2e72c822faa9b531","name":"Glossy Brisk Flicker","description":"No description provided.","data":{"args":[1,10,0,0,0],"colorset":["0x1d101e"],"flags":0,"numColors":1,"pattern_id":4},"dataHash":"148780b8fcd18e856125417bc06f8eda4883b36fecb5d4da069c4e26a2b2f15c","votes":0,"upvotedBy":[],"createdBy":"65f2971c700334ffe6c689ed","uploadDate":"2024-07-29T04:29:47.754Z","__v":0}],"ledPatternOrder":[0,1,1,0,1,1,0,0,1,1,0,1,1,0,0,1,1,0,1,1,0,0,1,1,0,1,1,0],"flags":10,"dataHash":"23cef6f84cb0863c055b178e250a91c30f6ac46c74b635c5648bf2718c44cc5a","votes":0,"upvotedBy":[],"createdBy":"65f2971c700334ffe6c689ed","uploadDate":"2024-07-29T04:29:47.781Z","__v":0},{"_id":"66a72df5707931886fa332e8","name":"Radiant Flame","description":"","deviceType":"Handle","patternSets":[{"_id":"66a71abb2e72c822faa9b52e","name":"Flickering Meteoric Hypnosis","description":"No description provided.","data":{"args":[6,6,0,0,0],"colorset":["0x0051ff","0xcc0041","0x992000","0x664800","0x003324"],"flags":0,"numColors":5,"pattern_id":0},"dataHash":"da7e905ce9f65391a2154b270fb5330b52f3ace62ba73e37d5a98b7af82905d3","votes":0,"upvotedBy":[],"createdBy":"65f2971c700334ffe6c689ed","uploadDate":"2024-07-29T04:29:47.748Z","__v":0},{"_id":"66a71abb2e72c822faa9b531","name":"Glossy Brisk Flicker","description":"No description provided.","data":{"args":[1,10,0,0,0],"colorset":["0x1d101e"],"flags":0,"numColors":1,"pattern_id":4},"dataHash":"148780b8fcd18e856125417bc06f8eda4883b36fecb5d4da069c4e26a2b2f15c","votes":0,"upvotedBy":[],"createdBy":"65f2971c700334ffe6c689ed","uploadDate":"2024-07-29T04:29:47.754Z","__v":0}],"ledPatternOrder":[0,1,1],"flags":10,"dataHash":"0d9b7131995ae73df55c4adbacedb2e2519068741a86b2e3b372ec1b7e2eb4cc","votes":0,"upvotedBy":[],"createdBy":"65f2971c700334ffe6c689ed","uploadDate":"2024-07-29T05:51:49.288Z","__v":0},{"_id":"66a72e14707931886fa33315","name":"Fluorescent Luminosity","description":"","deviceType":"Gloves","patternSets":[{"_id":"66a718bf2e72c822faa9b42c","name":"Mystic Fluorescent Comet","description":"No description provided.","data":{"args":[6,6,0,0,0],"colorset":["0x380057","0xff0000"],"flags":0,"numColors":2,"pattern_id":0},"dataHash":"b1148edf99d3f2a3e39bdc4ee999522be14df2fef47a9365da27019a8720b696","votes":0,"upvotedBy":[],"createdBy":"65f2971c700334ffe6c689ed","uploadDate":"2024-07-29T04:21:19.370Z","__v":0},{"_id":"66a718bf2e72c822faa9b42f","name":"Coruscating Luminosity","description":"No description provided.","data":{"args":[1,10,0,0,0],"colorset":["0xffffff"],"flags":0,"numColors":1,"pattern_id":4},"dataHash":"c3e6e7c1406b2c4390ec8423f74fd06ffb8f956f2dbc537b53fa305ac25e8b07","votes":0,"upvotedBy":[],"createdBy":"65f2971c700334ffe6c689ed","uploadDate":"2024-07-29T04:21:19.381Z","__v":0}],"ledPatternOrder":[0,1,1,0,1,1,0,0,1,1],"flags":10,"dataHash":"80e1faeaafa044c7142a7fea4aeb53f7920a402baa09e011eb01e74ea987be12","votes":0,"upvotedBy":[],"createdBy":"65f2971c700334ffe6c689ed","uploadDate":"2024-07-29T05:52:20.490Z","__v":0},{"_id":"66a731ad12cd7183a366852b","name":"Luminescent Radiator","description":"","deviceType":"Handle","patternSets":[{"_id":"66a731ad12cd7183a3668525","name":"Effervescent Lighthouse","description":"No description provided.","data":{"args":[6,6,0,0,0],"colorset":["0x4c00aa","0x841fff","0x632aaa","0x371f54","0x3d2a55","0x423454","0x493f55","0xeddfff"],"flags":0,"numColors":8,"pattern_id":0},"dataHash":"22c8997567e01955a064125e333e5be3b4b8596fcc8aeaf4a14ec87db8578877","votes":0,"upvotedBy":[],"createdBy":"65f2971c700334ffe6c689ed","uploadDate":"2024-07-29T06:07:41.791Z","__v":0},{"_id":"66a731ad12cd7183a3668528","name":"Glimmering Flashing Radiance","description":"No description provided.","data":{"args":[1,10,0,0,0],"colorset":["0x00ffae","0x0b553d","0x47ffc5","0x235545","0x8fffdb","0x3b554d","0xd7fff2"],"flags":0,"numColors":7,"pattern_id":4},"dataHash":"bbd63349f6b51b706568b349a2a024b7427f19d74b7cd0d8cacd3dbc2b348ad8","votes":0,"upvotedBy":[],"createdBy":"65f2971c700334ffe6c689ed","uploadDate":"2024-07-29T06:07:41.798Z","__v":0}],"ledPatternOrder":[0,1,1],"flags":10,"dataHash":"6b8c8cb284f5cdfe91da75388bb5c25648a1cb85eb184218d36d5b1c8ed926e5","votes":0,"upvotedBy":[],"createdBy":"65f2971c700334ffe6c689ed","uploadDate":"2024-07-29T06:07:41.801Z","__v":0},{"_id":"66a811f112cd7183a366883c","name":"Sparkly Incandescence","description":"You already know what it is fam","deviceType":"Handle","patternSets":[{"_id":"66a811f112cd7183a3668836","name":"Solar Pulse","description":"No description provided.","data":{"args":[1,10,0,0,0],"colorset":["0xff0000","0x00ff00","0x0000ff","0xabaa00","0x5500ab"],"flags":0,"numColors":5,"pattern_id":4},"dataHash":"39f9b70709ec69c253571a13ffbb4f27170d185a9e97882b99a2dd3eb9c32a62","votes":0,"upvotedBy":[],"createdBy":"65f4e1e821d5ae1957436fc2","uploadDate":"2024-07-29T22:04:33.935Z","__v":0},{"_id":"66a811f112cd7183a3668839","name":"Glistering Stellar Galaxy","description":"No description provided.","data":{"args":[8,0,36,0,7],"colorset":["0x009fff","0x003353","0x000107","0x0c0028","0x000107","0x003353","0x009fff"],"flags":0,"numColors":7,"pattern_id":0},"dataHash":"231d2f10f4c7a1d5affd43e9f8d438fa9e7e77ebaf486e5995d55e4486ad406d","votes":0,"upvotedBy":[],"createdBy":"65f4e1e821d5ae1957436fc2","uploadDate":"2024-07-29T22:04:33.944Z","__v":0}],"ledPatternOrder":[0,1,0],"flags":10,"dataHash":"02f4b35888bb63bf65d972f09bdba17a760176fbf00802f89b70c4987d37c1aa","votes":0,"upvotedBy":[],"createdBy":"65f4e1e821d5ae1957436fc2","uploadDate":"2024-07-29T22:04:33.947Z","__v":0},{"_id":"66ab5c877cbf757fad6f6592","name":"Flashing Lucent Galaxy","description":"youtube.com/trail","deviceType":"Orbit","patternSets":[{"_id":"66ab5c877cbf757fad6f6571","name":"Nebulous Phantasmagoric Glint","description":"No description provided.","data":{"args":[1,10,0,0,0],"colorset":["0x210427","0x000000","0x000000","0x000000","0x000000","0x000000"],"flags":0,"numColors":6,"pattern_id":4},"dataHash":"011cbc83eb79120e8d3f6f8747dc40f337049b757a6c2b873de62fbc5d11fe47","votes":0,"upvotedBy":[],"createdBy":"65f2971c700334ffe6c689ed","uploadDate":"2024-08-01T09:59:35.280Z","__v":0},{"_id":"66ab5c877cbf757fad6f6574","name":"Coruscating Translucent Torch","description":"No description provided.","data":{"args":[1,10,0,0,0],"colorset":["0x3d0000","0x001f1b"],"flags":0,"numColors":2,"pattern_id":4},"dataHash":"2f9b0fe267aeb5becf3473d0fe21ddcf18ab0a7e1051d0c0fbcbe356b1386c4b","votes":0,"upvotedBy":[],"createdBy":"65f2971c700334ffe6c689ed","uploadDate":"2024-08-01T09:59:35.295Z","__v":0},{"_id":"66ab5c877cbf757fad6f6578","name":"Mesmerizing Phantasmagoric Luminescence","description":"No description provided.","data":{"args":[1,10,0,0,0],"colorset":["0x413200","0x544100","0x001554","0x003fff","0x001554","0x544100","0x413200"],"flags":0,"numColors":7,"pattern_id":4},"dataHash":"f8af6012142eac461aec48bbbd59ac370330ff8a2e0b707ffeb621eecbc76888","votes":0,"upvotedBy":[],"createdBy":"65f2971c700334ffe6c689ed","uploadDate":"2024-08-01T09:59:35.297Z","__v":0}],"ledPatternOrder":[0,1,0,2,0,1,0,0,1,0,2,0,1,0,0,1,0,2,0,1,0,0,1,0,2,0,1,0],"flags":2,"dataHash":"35138b90f7d6de403503254f072869860ef2000f19e51bb0fdd5d2f237ce6983","votes":0,"upvotedBy":[],"createdBy":"65f2971c700334ffe6c689ed","uploadDate":"2024-08-01T09:59:35.328Z","__v":0},{"_id":"66bea48dec075d0abbdf2f2f","name":"Glinting Iridescence","description":"","deviceType":"Orbit","patternSets":[{"_id":"66bea48dec075d0abbdf2f06","name":"Mesmerizing Eclipse","description":"No description provided.","data":{"args":[15,51,0,0,0,8,0],"colorset":["0x1800ff","0x55001b","0xe1ff00","0x00553c","0xe1ff00","0x55001b","0x1800ff"],"flags":0,"numColors":7,"pattern_id":25},"dataHash":"3ed7848100855c7a6f77f526dc5ca49fccb37c97e1b9f894542b7bf4e0099a8f","votes":0,"upvotedBy":[],"createdBy":"65f2971c700334ffe6c689ed","uploadDate":"2024-08-16T00:59:57.350Z","__v":0},{"_id":"66bea48dec075d0abbdf2f09","name":"yee","description":"No description provided.","data":{"args":[3,7,22,0,8],"colorset":["0x33002f","0x662100","0x789900","0x00cc13","0x00b1ff"],"flags":0,"numColors":5,"pattern_id":0},"dataHash":"ccf45e22ab52e4c5b7fa37c07630442b6cc0c7e3d15a27518645281b9f12da57","votes":0,"upvotedBy":[],"createdBy":"65f2971c700334ffe6c689ed","uploadDate":"2024-08-16T00:59:57.364Z","__v":0},{"_id":"66bea48dec075d0abbdf2f0c","name":"Luminous Pulsating Starlight","description":"No description provided.","data":{"args":[15,51,0,0,0,8,0],"colorset":["0x5f007f","0x39fe00","0x5f007f"],"flags":0,"numColors":3,"pattern_id":25},"dataHash":"2063bd9d7fee238838116d04e8bedf2e8b40408f9d6621ed3ccdf51db61eb6fb","votes":0,"upvotedBy":[],"createdBy":"65f2971c700334ffe6c689ed","uploadDate":"2024-08-16T00:59:57.366Z","__v":0},{"_id":"66bea48dec075d0abbdf2f0f","name":"Cosmic Pulsar","description":"No description provided.","data":{"args":[3,7,22,0,8],"colorset":["0xff0075","0x00cc27","0x009939","0x006639","0x33002a"],"flags":0,"numColors":5,"pattern_id":0},"dataHash":"68bed91bf01c9193d325940e782b9462422fc2050c4cd5e790d5c368a4fa9640","votes":0,"upvotedBy":[],"createdBy":"65f2971c700334ffe6c689ed","uploadDate":"2024-08-16T00:59:57.368Z","__v":0},{"_id":"66bea48dec075d0abbdf2f12","name":"Gleaming Aurora","description":"No description provided.","data":{"args":[15,51,0,0,0,8,0],"colorset":["0x008dff","0x2000aa","0xf000ff","0xff0051","0x542700","0x425400","0x035500","0x00543b"],"flags":0,"numColors":8,"pattern_id":25},"dataHash":"167afa9c28f87f840fd4468c1278bf6879f4aa0c95904113ed7545fb10c685b9","votes":0,"upvotedBy":[],"createdBy":"65f2971c700334ffe6c689ed","uploadDate":"2024-08-16T00:59:57.370Z","__v":0},{"_id":"66bea48dec075d0abbdf2f15","name":"Lucent Solar Streak","description":"No description provided.","data":{"args":[3,7,22,0,8],"colorset":["0xd4ff1c","0x804019"],"flags":0,"numColors":2,"pattern_id":0},"dataHash":"5ab31b9513e796203a151b6feafb591c78d6129709a59ef18655b3e6297a57f5","votes":0,"upvotedBy":[],"createdBy":"65f2971c700334ffe6c689ed","uploadDate":"2024-08-16T00:59:57.374Z","__v":0},{"_id":"66bea48dec075d0abbdf2f1b","name":"Vivid Luminescence","description":"No description provided.","data":{"args":[3,7,22,0,8],"colorset":["0x6c00ff","0x240055","0x8dff00"],"flags":0,"numColors":3,"pattern_id":0},"dataHash":"d6bfc7a55501466b689e562e36826e32db62e5ff8b3363d23d1c6aec68a935b2","votes":0,"upvotedBy":[],"createdBy":"65f2971c700334ffe6c689ed","uploadDate":"2024-08-16T00:59:57.383Z","__v":0}],"ledPatternOrder":[0,1,2,3,4,5,2,3,2,6,2,6,2,3,0,3,4,5,0,3,2,5,4,5,2,6,2,3],"flags":10,"dataHash":"94703c4046622fd4c6ca0b0d75038c51f4c031d9e163759e8961a34ae99f02e3","votes":0,"upvotedBy":[],"createdBy":"65f2971c700334ffe6c689ed","uploadDate":"2024-08-16T00:59:57.408Z","__v":0},{"_id":"66c6aa23ec075d0abbdf43a8","name":"Rainbow Stone","description":"A rainbow split between several groups of LEDs","deviceType":"Orbit","patternSets":[{"_id":"66c6aa23ec075d0abbdf4385","name":"Blinding Celestial Wave","description":"No description provided.","data":{"args":[1,1,10,0,6],"colorset":["0x7800ff","0xff00c9"],"flags":0,"numColors":2,"pattern_id":13},"dataHash":"2d2f8859c84a125fd5aa3ac47855210409abadfe050e22c95c37bac947dce3e3","votes":0,"upvotedBy":[],"createdBy":"65f4e1e821d5ae1957436fc2","uploadDate":"2024-08-22T03:01:55.792Z","__v":0},{"_id":"66c6aa23ec075d0abbdf4388","name":"Galactic Comet","description":"No description provided.","data":{"args":[1,4,7,0,0],"colorset":["0x00fffc","0x0045ff"],"flags":0,"numColors":2,"pattern_id":13},"dataHash":"6108b362d44369c2164c977f6be8b180bf4407a5739d700175c928e9ff35a8f0","votes":0,"upvotedBy":[],"createdBy":"65f4e1e821d5ae1957436fc2","uploadDate":"2024-08-22T03:01:55.806Z","__v":0},{"_id":"66c6aa23ec075d0abbdf438b","name":"Flashing Comet","description":"No description provided.","data":{"args":[1,2,33,0,4],"colorset":["0x81ff00","0x00ff3c"],"flags":0,"numColors":2,"pattern_id":13},"dataHash":"872c9104848eeac6d45ab258a90b79bcc7b6bf332689294a7525265f2d8584ae","votes":0,"upvotedBy":[],"createdBy":"65f4e1e821d5ae1957436fc2","uploadDate":"2024-08-22T03:01:55.808Z","__v":0},{"_id":"66c6aa23ec075d0abbdf438e","name":"Celestial Photon","description":"No description provided.","data":{"args":[1,1,3,3,5],"colorset":["0xff0000","0xffc000"],"flags":0,"numColors":2,"pattern_id":13},"dataHash":"1aae02218cc6de98bb404d69a2f5bc1899a1e33e7e033e004ba35fb46f8beccc","votes":0,"upvotedBy":[],"createdBy":"65f4e1e821d5ae1957436fc2","uploadDate":"2024-08-22T03:01:55.811Z","__v":0}],"ledPatternOrder":[0,1,2,3,2,1,0,0,1,2,3,2,1,0,0,1,2,3,2,1,0,0,1,2,3,2,1,0],"flags":10,"dataHash":"0b30285831d8f72c74a7b2cdda5cde958890651de08154de0cbcd776116d837b","votes":0,"upvotedBy":[],"createdBy":"65f4e1e821d5ae1957436fc2","uploadDate":"2024-08-22T03:01:55.832Z","__v":0},{"_id":"66db8aa5ed8caf93278d2ca4","name":"Broken Mode Aurora","description":"","deviceType":"Orbit","patternSets":[{"_id":"66db8aa5ed8caf93278d2c85","name":"Solar Flicker","description":"No description provided.","data":{"args":[6,6,0,0,0,10,0],"colorset":["0x554a00","0x554a00","0x00aa90","0x00aa90","0xd200ff","0xd200ff"],"flags":0,"numColors":6,"pattern_id":26},"dataHash":"3b9f79e2fda7b7cb71aa2d43c2f023bf864fcba291a70a3f5187882fc1409906","votes":0,"upvotedBy":[],"createdBy":"65f2971c700334ffe6c689ed","uploadDate":"2024-09-06T23:05:09.469Z","__v":0},{"_id":"66db8aa5ed8caf93278d2c88","name":"Flashing Bonfire","description":"No description provided.","data":{"args":[1,3,10,0,2],"colorset":["0xff0033","0xff0033","0xdb2f00","0xb76b00","0x938d00","0x4a6f00","0x164b00","0x002702"],"flags":0,"numColors":8,"pattern_id":14},"dataHash":"f97965e0e704f1abc9721c8b00fbab5b2448b9756c7bc6014506d227bb021060","votes":0,"upvotedBy":[],"createdBy":"65f2971c700334ffe6c689ed","uploadDate":"2024-09-06T23:05:09.473Z","__v":0}],"ledPatternOrder":[0,1,0,1,0,1,0,0,1,0,1,0,1,0,0,1,0,1,0,1,0,0,1,0,1,0,1,0],"flags":10,"dataHash":"6855738aacba727e95eaa6efe8e048c392261157d6e1f1855b602089b382a52b","votes":0,"upvotedBy":[],"createdBy":"65f2971c700334ffe6c689ed","uploadDate":"2024-09-06T23:05:09.494Z","__v":0}],"page":1,"pageSize":10,"pages":2,"totalCount":19}
